module railAPIRevel

go 1.15

require (
	github.com/bradfitz/gomemcache v0.0.0-20190913173617-a41fca850d0b // indirect
	github.com/fsnotify/fsnotify v1.4.9 // indirect
	github.com/garyburd/redigo v1.6.2 // indirect
	github.com/go-stack/stack v1.8.0 // indirect
	github.com/inconshreveable/log15 v0.0.0-20201112154412-8562bdadbbac // indirect
	github.com/mattn/go-colorable v0.1.8 // indirect
	github.com/patrickmn/go-cache v2.1.0+incompatible // indirect
	github.com/revel/config v1.0.0 // indirect
	github.com/revel/log15 v2.11.20+incompatible // indirect
	github.com/revel/modules v1.0.0
	github.com/revel/pathtree v0.0.0-20140121041023-41257a1839e9 // indirect
	github.com/revel/revel v1.0.0
	github.com/twinj/uuid v1.0.0 // indirect
	github.com/xeonx/timeago v1.0.0-rc4 // indirect
	golang.org/x/net v0.0.0-20201224014010-6772e930b67b // indirect
	gopkg.in/natefinch/lumberjack.v2 v2.0.0 // indirect
	gopkg.in/stack.v0 v0.0.0-20141108040640-9b43fcefddd0 // indirect
)
